%module(directors="1") mtmanapi
%{
#include <windows.h>
#include "MT4ManagerAPI.h"
%}

%include <typemaps.i>
%include "carrays.i"

%array_functions(ConGroup, ConGroupArray);
%array_functions(ConGroupSec, ConGroupSecArray);
%array_functions(UserRecord, UserRecordArray);
%array_functions(TradeRecord, TradeRecordArray);
%array_functions(ConSymbol, ConSymbolArray);
%array_functions(SymbolInfo, SymbolInfoArray);
%array_functions(RateInfo, RateInfoArray);
%array_functions(TickInfo, TickInfoArray);
%array_functions(ConSessions, ConSessionsArray);
%array_functions(ConSession, ConSessionArray);
%array_functions(MarginLevel, MarginLevelArray);
%array_functions(ConPlugin, ConPluginArray);
%array_functions(PluginCfg, PluginCfgArray);
%array_functions(RequestInfo, RequestInfoArray);
%array_functions(ConHoliday, ConHolidayArray);
%array_functions(OnlineRecord, OnlineRecordArray);


%feature("director") PumpReceiver;

%inline %{
#define LPCSTR char*
%}

typedef __time32_t time_t;
typedef int __time32_t;
typedef unsigned int DWORD;
typedef DWORD COLORREF;

%include "windows.i"
%include "MT4ManagerAPI.h"
